Experimental Design and Analysis for tree Improvement using R - 5 Analysis Across Sites
…
 Tab5.14 <-
   DataExam5.2 %>%
       summarise(Mean = mean(Ht, na.rm = TRUE), .by = SeedLot) %>%
     left_join(
       DataExam5.2 %>%
         nest_by(SeedLot) %>%
         mutate(fm2 = list(lm(Ht ~ SiteMean, data = data))) %>%
         summarise(Slope = coef(fm2)[2])
     , by = "SeedLot"
       )

 # Pg. 81
 Tab5.14
# A tibble: 37 × 3
   SeedLot  Mean Slope
   <fct>   <dbl> <dbl>
 1 13877    291  0.801
 2 13866    302  0.565
 3 13689    463. 1.07 
 4 13688    458. 1.20 
 5 13861    538. 1.08 
 6 13854    536. 1.16 
 7 13686    726. 1.77 
 8 13684    549. 1.34 
 9 13864    371. 0.792
10 13863    586. 1.19 
# ℹ 27 more rows
…
